Gênero e Política
…
tabela_sim  <- desc_hist %>% filter(historico_gov == "Sim")
tabela_nao  <- desc_hist %>% filter(historico_gov == "Não")
tabela_vice <- desc_hist %>% filter(historico_gov == "Vice elevada")

desc_hist

## # A tibble: 24 × 9
##    historico_gov variavel              n media  moda mediana minimo maximo    dp
##    <fct>         <chr>             <int> <dbl> <dbl>   <dbl>  <dbl>  <dbl> <dbl>
##  1 Não           gov_candidatas_2…    14 0.126     0   0.127      0  0.333 0.106
##  2 Sim           gov_candidatas_2…     7 0.179     0   0.167      0  0.429 0.160
##  3 Vice elevada  gov_candidatas_2…     6 0.142     0   0.174      0  0.3   0.119
##  4 Não           gov_candidatas_2…    14 0.147     0   0.118      0  0.5   0.148
##  5 Sim           gov_candidatas_2…     7 0.175     0   0.2        0  0.333 0.116
##  6 Vice elevada  gov_candidatas_2…     6 0.181     0   0.155      0  0.444 0.179
##  7 Não           gov_eleitas_2018     14 0         0   0          0  0     0    
##  8 Sim           gov_eleitas_2018      7 0.143     0   0          0  1     0.378
##  9 Vice elevada  gov_eleitas_2018      6 0         0   0          0  0     0    
## 10 Não           gov_eleitas_2022     14 0         0   0          0  0     0    
## # ℹ 14 more rows
…
resultados_tukey <- map_dfr(
  vars,
  \(v){
    form <- as.formula(paste(v, "~ historico_gov"))
    mod  <- aov(form, data = dados)
    
    tuk  <- TukeyHSD(mod)$historico_gov  # matriz da comparação do fator
    as_tibble(tuk, rownames = "comparacao") %>%
      mutate(variavel = v, .before = 1)
  }
)

resultados_tukey

## # A tibble: 24 × 6
##    variavel            comparacao            diff      lwr   upr `p adj`
##    <chr>               <chr>                <dbl>    <dbl> <dbl>   <dbl>
##  1 gov_candidatas_2018 Sim-Não           5.27e- 2 -0.0909  0.196  0.635 
##  2 gov_candidatas_2018 Vice elevada-Não  1.51e- 2 -0.136   0.166  0.967 
##  3 gov_candidatas_2018 Vice elevada-Sim -3.76e- 2 -0.210   0.135  0.850 
##  4 gov_candidatas_2022 Sim-Não           2.76e- 2 -0.143   0.199  0.915 
##  5 gov_candidatas_2022 Vice elevada-Não  3.42e- 2 -0.146   0.214  0.884 
##  6 gov_candidatas_2022 Vice elevada-Sim  6.60e- 3 -0.199   0.212  0.996 
##  7 gov_eleitas_2018    Sim-Não           1.43e- 1 -0.0756  0.361  0.252 
##  8 gov_eleitas_2018    Vice elevada-Não  2.26e-17 -0.230   0.230  1     
##  9 gov_eleitas_2018    Vice elevada-Sim -1.43e- 1 -0.405   0.120  0.378 
## 10 gov_eleitas_2022    Sim-Não           2.86e- 1  0.00367 0.568  0.0467
## # ℹ 14 more rows
…
